{
  "runtimeOptions": {
    "tfm": "netcoreapp3.1",
    "includedFrameworks": [
      {
        "name": "Microsoft.NETCore.App",
        "version": "3.1.6"
      },
      {
        "name": "Microsoft.AspNetCore.App",
        "version": "3.1.6"
      }
    ]
  }
}