{
  "runtimeTarget": {
    "name": ".NETCoreApp,Version=v3.1/osx-x64",
    "signature": ""
  },
  "compilationOptions": {},
  "targets": {
    ".NETCoreApp,Version=v3.1": {},
    ".NETCoreApp,Version=v3.1/osx-x64": {
      "LandClim/2.0": {
        "dependencies": {
          "CsvHelper": "15.0.1",
          "NLog": "4.6.8",
          "NLog.Config": "4.6.8",
          "NLog.Web.AspNetCore": "4.9.0",
          "System.Runtime.Serialization.Formatters": "4.3.0",
          "runtimepack.Microsoft.NETCore.App.Runtime.osx-x64": "3.1.6",
          "runtimepack.Microsoft.AspNetCore.App.Runtime.osx-x64": "3.1.6"
        },
        "runtime": {
          "LandClim.dll": {}
        }
      },
      "runtimepack.Microsoft.NETCore.App.Runtime.osx-x64/3.1.6": {
        "runtime": {
          "Microsoft.CSharp.dll": {
            "assemblyVersion": "4.0.5.0",
            "fileVersion": "4.700.20.31603"
          },
          "Microsoft.VisualBasic.Core.dll": {
            "assemblyVersion": "10.0.5.0",
            "fileVersion": "4.700.20.31603"
          },
          "Microsoft.VisualBasic.dll": {
            "assemblyVersion": "10.0.0.0",
            "fileVersion": "4.700.20.31603"
          },
          "Microsoft.Win32.Primitives.dll": {
            "assemblyVersion": "4.1.2.0",
            "fileVersion": "4.700.20.31603"
          },
          "Microsoft.Win32.Registry.dll": {
            "assemblyVersion": "4.1.3.0",
            "fileVersion": "4.700.20.31603"
          },
          "System.AppContext.dll": {
            "assemblyVersion": "4.2.2.0",
            "fileVersion": "4.700.20.31603"
          },
          "System.Buffers.dll": {
            "assemblyVersion": "4.0.5.0",
            "fileVersion": "4.700.20.31603"
          },
          "System.Collections.Concurrent.dll": {
            "assemblyVersion": "4.0.15.0",
            "fileVersion": "4.700.20.31603"
          },
          "System.Collections.Immutable.dll": {
            "assemblyVersion": "1.2.5.0",
            "fileVersion": "4.700.20.31603"
          },
          "System.Collections.NonGeneric.dll": {
            "assemblyVersion": "4.1.2.0",
            "fileVersion": "4.700.20.31603"
          },
          "System.Collections.Specialized.dll": {
            "assemblyVersion": "4.1.2.0",
            "fileVersion": "4.700.20.31603"
          },
          "System.Collections.dll": {
            "assemblyVersion": "4.1.2.0",
            "fileVersion": "4.700.20.31603"
          },
          "System.ComponentModel.Annotations.dll": {
            "assemblyVersion": "4.3.1.0",
            "fileVersion": "4.700.20.31603"
          },
          "System.ComponentModel.DataAnnotations.dll": {
            "assemblyVersion": "4.0.0.0",
            "fileVersion": "4.700.20.31603"
          },
          "System.ComponentModel.EventBasedAsync.dll": {
            "assemblyVersion": "4.1.2.0",
            "fileVersion": "4.700.20.31603"
          },
          "System.ComponentModel.Primitives.dll": {
            "assemblyVersion": "4.2.2.0",
            "fileVersion": "4.700.20.31603"
          },
          "System.ComponentModel.TypeConverter.dll": {
            "assemblyVersion": "4.2.2.0",
            "fileVersion": "4.700.20.31603"
          },
          "System.ComponentModel.dll": {
            "assemblyVersion": "4.0.4.0",
            "fileVersion": "4.700.20.31603"
          },
          "System.Configuration.dll": {
            "assemblyVersion": "4.0.0.0",
            "fileVersion": "4.700.20.31603"
          },
          "System.Console.dll": {
            "assemblyVersion": "4.1.2.0",
            "fileVersion": "4.700.20.31603"
          },
          "System.Core.dll": {
            "assemblyVersion": "4.0.0.0",
            "fileVersion": "4.700.20.31603"
          },
          "System.Data.Common.dll": {
            "assemblyVersion": "4.2.2.0",
            "fileVersion": "4.700.20.31603"
          },
          "System.Data.DataSetExtensions.dll": {
            "assemblyVersion": "4.0.1.0",
            "fileVersion": "4.700.20.31603"
          },
          "System.Data.dll": {
            "assemblyVersion": "4.0.0.0",
            "fileVersion": "4.700.20.31603"
          },
          "System.Diagnostics.Contracts.dll": {
            "assemblyVersion": "4.0.4.0",
            "fileVersion": "4.700.20.31603"
          },
          "System.Diagnostics.Debug.dll": {
            "assemblyVersion": "4.1.2.0",
            "fileVersion": "4.700.20.31603"
          },
          "System.Diagnostics.DiagnosticSource.dll": {
            "assemblyVersion": "4.0.5.0",
            "fileVersion": "4.700.20.31603"
          },
          "System.Diagnostics.FileVersionInfo.dll": {
            "assemblyVersion": "4.0.4.0",
            "fileVersion": "4.700.20.31603"
          },
          "System.Diagnostics.Process.dll": {
            "assemblyVersion": "4.2.2.0",
            "fileVersion": "4.700.20.31603"
          },
          "System.Diagnostics.StackTrace.dll": {
            "assemblyVersion": "4.1.2.0",
            "fileVersion": "4.700.20.31603"
          },
          "System.Diagnostics.TextWriterTraceListener.dll": {
            "assemblyVersion": "4.1.2.0",
            "fileVersion": "4.700.20.31603"
          },
          "System.Diagnostics.Tools.dll": {
            "assemblyVersion": "4.1.2.0",
            "fileVersion": "4.700.20.31603"
          },
          "System.Diagnostics.TraceSource.dll": {
            "assemblyVersion": "4.1.2.0",
            "fileVersion": "4.700.20.31603"
          },
          "System.Diagnostics.Tracing.dll": {
            "assemblyVersion": "4.2.2.0",
            "fileVersion": "4.700.20.31603"
          },
          "System.Drawing.Primitives.dll": {
            "assemblyVersion": "4.2.1.0",
            "fileVersion": "4.700.20.31603"
          },
          "System.Drawing.dll": {
            "assemblyVersion": "4.0.0.0",
            "fileVersion": "4.700.20.31603"
          },
          "System.Dynamic.Runtime.dll": {
            "assemblyVersion": "4.1.2.0",
            "fileVersion": "4.700.20.31603"
          },
          "System.Globalization.Calendars.dll": {
            "assemblyVersion": "4.1.2.0",
            "fileVersion": "4.700.20.31603"
          },
          "System.Globalization.Extensions.dll": {
            "assemblyVersion": "4.1.2.0",
            "fileVersion": "4.700.20.31603"
          },
          "System.Globalization.dll": {
            "assemblyVersion": "4.1.2.0",
            "fileVersion": "4.700.20.31603"
          },
          "System.IO.Compression.Brotli.dll": {
            "assemblyVersion": "4.2.2.0",
            "fileVersion": "4.700.20.31603"
          },
          "System.IO.Compression.FileSystem.dll": {
            "assemblyVersion": "4.0.0.0",
            "fileVersion": "4.700.20.31603"
          },
          "System.IO.Compression.ZipFile.dll": {
            "assemblyVersion": "4.0.5.0",
            "fileVersion": "4.700.20.31603"
          },
          "System.IO.Compression.dll": {
            "assemblyVersion": "4.2.2.0",
            "fileVersion": "4.700.20.31603"
          },
          "System.IO.FileSystem.AccessControl.dll": {
            "assemblyVersion": "4.0.5.0",
            "fileVersion": "4.700.20.31603"
          },
          "System.IO.FileSystem.DriveInfo.dll": {
            "assemblyVersion": "4.1.2.0",
            "fileVersion": "4.700.20.31603"
          },
          "System.IO.FileSystem.Primitives.dll": {
            "assemblyVersion": "4.1.2.0",
            "fileVersion": "4.700.20.31603"
          },
          "System.IO.FileSystem.Watcher.dll": {
            "assemblyVersion": "4.1.2.0",
            "fileVersion": "4.700.20.31603"
          },
          "System.IO.FileSystem.dll": {
            "assemblyVersion": "4.1.2.0",
            "fileVersion": "4.700.20.31603"
          },
          "System.IO.IsolatedStorage.dll": {
            "assemblyVersion": "4.1.2.0",
            "fileVersion": "4.700.20.31603"
          },
          "System.IO.MemoryMappedFiles.dll": {
            "assemblyVersion": "4.1.2.0",
            "fileVersion": "4.700.20.31603"
          },
          "System.IO.Pipes.AccessControl.dll": {
            "assemblyVersion": "4.0.5.0",
            "fileVersion": "4.700.20.31603"
          },
          "System.IO.Pipes.dll": {
            "assemblyVersion": "4.1.2.0",
            "fileVersion": "4.700.20.31603"
          },
          "System.IO.UnmanagedMemoryStream.dll": {
            "assemblyVersion": "4.1.2.0",
            "fileVersion": "4.700.20.31603"
          },
          "System.IO.dll": {
            "assemblyVersion": "4.2.2.0",
            "fileVersion": "4.700.20.31603"
          },
          "System.Linq.Expressions.dll": {
            "assemblyVersion": "4.2.2.0",
            "fileVersion": "4.700.20.31603"
          },
          "System.Linq.Parallel.dll": {
            "assemblyVersion": "4.0.4.0",
            "fileVersion": "4.700.20.31603"
          },
          "System.Linq.Queryable.dll": {
            "assemblyVersion": "4.0.4.0",
            "fileVersion": "4.700.20.31603"
          },
          "System.Linq.dll": {
            "assemblyVersion": "4.2.2.0",
            "fileVersion": "4.700.20.31603"
          },
          "System.Memory.dll": {
            "assemblyVersion": "4.2.1.0",
            "fileVersion": "4.700.20.31603"
          },
          "System.Net.Http.dll": {
            "assemblyVersion": "4.2.2.0",
            "fileVersion": "4.700.20.31603"
          },
          "System.Net.HttpListener.dll": {
            "assemblyVersion": "4.0.2.0",
            "fileVersion": "4.700.20.31603"
          },
          "System.Net.Mail.dll": {
            "assemblyVersion": "4.0.2.0",
            "fileVersion": "4.700.20.31603"
          },
          "System.Net.NameResolution.dll": {
            "assemblyVersion": "4.1.2.0",
            "fileVersion": "4.700.20.31603"
          },
          "System.Net.NetworkInformation.dll": {
            "assemblyVersion": "4.2.2.0",
            "fileVersion": "4.700.20.31603"
          },
          "System.Net.Ping.dll": {
            "assemblyVersion": "4.1.2.0",
            "fileVersion": "4.700.20.31603"
          },
          "System.Net.Primitives.dll": {
            "assemblyVersion": "4.1.2.0",
            "fileVersion": "4.700.20.31603"
          },
          "System.Net.Requests.dll": {
            "assemblyVersion": "4.1.2.0",
            "fileVersion": "4.700.20.31603"
          },
          "System.Net.Security.dll": {
            "assemblyVersion": "4.1.2.0",
            "fileVersion": "4.700.20.31603"
          },
          "System.Net.ServicePoint.dll": {
            "assemblyVersion": "4.0.2.0",
            "fileVersion": "4.700.20.31603"
          },
          "System.Net.Sockets.dll": {
            "assemblyVersion": "4.2.2.0",
            "fileVersion": "4.700.20.31603"
          },
          "System.Net.WebClient.dll": {
            "assemblyVersion": "4.0.2.0",
            "fileVersion": "4.700.20.31603"
          },
          "System.Net.WebHeaderCollection.dll": {
            "assemblyVersion": "4.1.2.0",
            "fileVersion": "4.700.20.31603"
          },
          "System.Net.WebProxy.dll": {
            "assemblyVersion": "4.0.2.0",
            "fileVersion": "4.700.20.31603"
          },
          "System.Net.WebSockets.Client.dll": {
            "assemblyVersion": "4.1.2.0",
            "fileVersion": "4.700.20.31603"
          },
          "System.Net.WebSockets.dll": {
            "assemblyVersion": "4.1.2.0",
            "fileVersion": "4.700.20.31603"
          },
          "System.Net.dll": {
            "assemblyVersion": "4.0.0.0",
            "fileVersion": "4.700.20.31603"
          },
          "System.Numerics.Vectors.dll": {
            "assemblyVersion": "4.1.6.0",
            "fileVersion": "4.700.20.31603"
          },
          "System.Numerics.dll": {
            "assemblyVersion": "4.0.0.0",
            "fileVersion": "4.700.20.31603"
          },
          "System.ObjectModel.dll": {
            "assemblyVersion": "4.1.2.0",
            "fileVersion": "4.700.20.31603"
          },
          "System.Private.DataContractSerialization.dll": {
            "assemblyVersion": "4.1.5.0",
            "fileVersion": "4.700.20.31603"
          },
          "System.Private.Uri.dll": {
            "assemblyVersion": "4.0.6.0",
            "fileVersion": "4.700.20.31603"
          },
          "System.Private.Xml.Linq.dll": {
            "assemblyVersion": "4.0.2.0",
            "fileVersion": "4.700.20.31603"
          },
          "System.Private.Xml.dll": {
            "assemblyVersion": "4.0.2.0",
            "fileVersion": "4.700.20.31603"
          },
          "System.Reflection.DispatchProxy.dll": {
            "assemblyVersion": "4.0.6.0",
            "fileVersion": "4.700.20.31603"
          },
          "System.Reflection.Emit.ILGeneration.dll": {
            "assemblyVersion": "4.1.1.0",
            "fileVersion": "4.700.20.31603"
          },
          "System.Reflection.Emit.Lightweight.dll": {
            "assemblyVersion": "4.1.1.0",
            "fileVersion": "4.700.20.31603"
          },
          "System.Reflection.Emit.dll": {
            "assemblyVersion": "4.1.2.0",
            "fileVersion": "4.700.20.31603"
          },
          "System.Reflection.Extensions.dll": {
            "assemblyVersion": "4.1.2.0",
            "fileVersion": "4.700.20.31603"
          },
          "System.Reflection.Metadata.dll": {
            "assemblyVersion": "1.4.5.0",
            "fileVersion": "4.700.20.31603"
          },
          "System.Reflection.Primitives.dll": {
            "assemblyVersion": "4.1.2.0",
            "fileVersion": "4.700.20.31603"
          },
          "System.Reflection.TypeExtensions.dll": {
            "assemblyVersion": "4.1.5.0",
            "fileVersion": "4.700.20.31603"
          },
          "System.Reflection.dll": {
            "assemblyVersion": "4.2.2.0",
            "fileVersion": "4.700.20.31603"
          },
          "System.Resources.Reader.dll": {
            "assemblyVersion": "4.1.2.0",
            "fileVersion": "4.700.20.31603"
          },
          "System.Resources.ResourceManager.dll": {
            "assemblyVersion": "4.1.2.0",
            "fileVersion": "4.700.20.31603"
          },
          "System.Resources.Writer.dll": {
            "assemblyVersion": "4.1.2.0",
            "fileVersion": "4.700.20.31603"
          },
          "System.Runtime.CompilerServices.Unsafe.dll": {
            "assemblyVersion": "4.0.6.0",
            "fileVersion": "4.0.0.0"
          },
          "System.Runtime.CompilerServices.VisualC.dll": {
            "assemblyVersion": "4.1.2.0",
            "fileVersion": "4.700.20.31603"
          },
          "System.Runtime.Extensions.dll": {
            "assemblyVersion": "4.2.2.0",
            "fileVersion": "4.700.20.31603"
          },
          "System.Runtime.Handles.dll": {
            "assemblyVersion": "4.1.2.0",
            "fileVersion": "4.700.20.31603"
          },
          "System.Runtime.InteropServices.RuntimeInformation.dll": {
            "assemblyVersion": "4.0.4.0",
            "fileVersion": "4.700.20.31603"
          },
          "System.Runtime.InteropServices.WindowsRuntime.dll": {
            "assemblyVersion": "4.0.4.0",
            "fileVersion": "4.700.20.31603"
          },
          "System.Runtime.InteropServices.dll": {
            "assemblyVersion": "4.2.2.0",
            "fileVersion": "4.700.20.31603"
          },
          "System.Runtime.Intrinsics.dll": {
            "assemblyVersion": "4.0.1.0",
            "fileVersion": "4.700.20.31603"
          },
          "System.Runtime.Loader.dll": {
            "assemblyVersion": "4.1.1.0",
            "fileVersion": "4.700.20.31603"
          },
          "System.Runtime.Numerics.dll": {
            "assemblyVersion": "4.1.2.0",
            "fileVersion": "4.700.20.31603"
          },
          "System.Runtime.Serialization.Formatters.dll": {
            "assemblyVersion": "4.0.4.0",
            "fileVersion": "4.700.20.31603"
          },
          "System.Runtime.Serialization.Json.dll": {
            "assemblyVersion": "4.0.5.0",
            "fileVersion": "4.700.20.31603"
          },
          "System.Runtime.Serialization.Primitives.dll": {
            "assemblyVersion": "4.2.2.0",
            "fileVersion": "4.700.20.31603"
          },
          "System.Runtime.Serialization.Xml.dll": {
            "assemblyVersion": "4.1.5.0",
            "fileVersion": "4.700.20.31603"
          },
          "System.Runtime.Serialization.dll": {
            "assemblyVersion": "4.0.0.0",
            "fileVersion": "4.700.20.31603"
          },
          "System.Runtime.WindowsRuntime.UI.Xaml.dll": {
            "assemblyVersion": "4.0.5.0",
            "fileVersion": "4.700.20.31603"
          },
          "System.Runtime.WindowsRuntime.dll": {
            "assemblyVersion": "4.0.15.0",
            "fileVersion": "4.700.20.31603"
          },
          "System.Runtime.dll": {
            "assemblyVersion": "4.2.2.0",
            "fileVersion": "4.700.20.31603"
          },
          "System.Security.AccessControl.dll": {
            "assemblyVersion": "4.1.3.0",
            "fileVersion": "4.700.20.31603"
          },
          "System.Security.Claims.dll": {
            "assemblyVersion": "4.1.2.0",
            "fileVersion": "4.700.20.31603"
          },
          "System.Security.Cryptography.Algorithms.dll": {
            "assemblyVersion": "4.3.2.0",
            "fileVersion": "4.700.20.31603"
          },
          "System.Security.Cryptography.Cng.dll": {
            "assemblyVersion": "4.3.3.0",
            "fileVersion": "4.700.20.31603"
          },
          "System.Security.Cryptography.Csp.dll": {
            "assemblyVersion": "4.1.2.0",
            "fileVersion": "4.700.20.31603"
          },
          "System.Security.Cryptography.Encoding.dll": {
            "assemblyVersion": "4.1.2.0",
            "fileVersion": "4.700.20.31603"
          },
          "System.Security.Cryptography.OpenSsl.dll": {
            "assemblyVersion": "4.1.3.0",
            "fileVersion": "4.700.20.31603"
          },
          "System.Security.Cryptography.Primitives.dll": {
            "assemblyVersion": "4.1.2.0",
            "fileVersion": "4.700.20.31603"
          },
          "System.Security.Cryptography.X509Certificates.dll": {
            "assemblyVersion": "4.2.2.0",
            "fileVersion": "4.700.20.31603"
          },
          "System.Security.Principal.Windows.dll": {
            "assemblyVersion": "4.1.3.0",
            "fileVersion": "4.700.20.31603"
          },
          "System.Security.Principal.dll": {
            "assemblyVersion": "4.1.2.0",
            "fileVersion": "4.700.20.31603"
          },
          "System.Security.SecureString.dll": {
            "assemblyVersion": "4.1.2.0",
            "fileVersion": "4.700.20.31603"
          },
          "System.Security.dll": {
            "assemblyVersion": "4.0.0.0",
            "fileVersion": "4.700.20.31603"
          },
          "System.ServiceModel.Web.dll": {
            "assemblyVersion": "4.0.0.0",
            "fileVersion": "4.700.20.31603"
          },
          "System.ServiceProcess.dll": {
            "assemblyVersion": "4.0.0.0",
            "fileVersion": "4.700.20.31603"
          },
          "System.Text.Encoding.CodePages.dll": {
            "assemblyVersion": "4.1.3.0",
            "fileVersion": "4.700.20.31603"
          },
          "System.Text.Encoding.Extensions.dll": {
            "assemblyVersion": "4.1.2.0",
            "fileVersion": "4.700.20.31603"
          },
          "System.Text.Encoding.dll": {
            "assemblyVersion": "4.1.2.0",
            "fileVersion": "4.700.20.31603"
          },
          "System.Text.Encodings.Web.dll": {
            "assemblyVersion": "4.0.5.0",
            "fileVersion": "4.700.20.31603"
          },
          "System.Text.Json.dll": {
            "assemblyVersion": "4.0.1.2",
            "fileVersion": "4.700.20.31603"
          },
          "System.Text.RegularExpressions.dll": {
            "assemblyVersion": "4.2.2.0",
            "fileVersion": "4.700.20.31603"
          },
          "System.Threading.Channels.dll": {
            "assemblyVersion": "4.0.2.0",
            "fileVersion": "4.700.20.31603"
          },
          "System.Threading.Overlapped.dll": {
            "assemblyVersion": "4.1.2.0",
            "fileVersion": "4.700.20.31603"
          },
          "System.Threading.Tasks.Dataflow.dll": {
            "assemblyVersion": "4.6.5.0",
            "fileVersion": "4.700.20.31603"
          },
          "System.Threading.Tasks.Extensions.dll": {
            "assemblyVersion": "4.3.1.0",
            "fileVersion": "4.700.20.31603"
          },
          "System.Threading.Tasks.Parallel.dll": {
            "assemblyVersion": "4.0.4.0",
            "fileVersion": "4.700.20.31603"
          },
          "System.Threading.Tasks.dll": {
            "assemblyVersion": "4.1.2.0",
            "fileVersion": "4.700.20.31603"
          },
          "System.Threading.Thread.dll": {
            "assemblyVersion": "4.1.2.0",
            "fileVersion": "4.700.20.31603"
          },
          "System.Threading.ThreadPool.dll": {
            "assemblyVersion": "4.1.2.0",
            "fileVersion": "4.700.20.31603"
          },
          "System.Threading.Timer.dll": {
            "assemblyVersion": "4.1.2.0",
            "fileVersion": "4.700.20.31603"
          },
          "System.Threading.dll": {
            "assemblyVersion": "4.1.2.0",
            "fileVersion": "4.700.20.31603"
          },
          "System.Transactions.Local.dll": {
            "assemblyVersion": "4.0.2.0",
            "fileVersion": "4.700.20.31603"
          },
          "System.Transactions.dll": {
            "assemblyVersion": "4.0.0.0",
            "fileVersion": "4.700.20.31603"
          },
          "System.ValueTuple.dll": {
            "assemblyVersion": "4.0.5.0",
            "fileVersion": "4.700.20.31603"
          },
          "System.Web.HttpUtility.dll": {
            "assemblyVersion": "4.0.2.0",
            "fileVersion": "4.700.20.31603"
          },
          "System.Web.dll": {
            "assemblyVersion": "4.0.0.0",
            "fileVersion": "4.700.20.31603"
          },
          "System.Windows.dll": {
            "assemblyVersion": "4.0.0.0",
            "fileVersion": "4.700.20.31603"
          },
          "System.Xml.Linq.dll": {
            "assemblyVersion": "4.0.0.0",
            "fileVersion": "4.700.20.31603"
          },
          "System.Xml.ReaderWriter.dll": {
            "assemblyVersion": "4.2.2.0",
            "fileVersion": "4.700.20.31603"
          },
          "System.Xml.Serialization.dll": {
            "assemblyVersion": "4.0.0.0",
            "fileVersion": "4.700.20.31603"
          },
          "System.Xml.XDocument.dll": {
            "assemblyVersion": "4.1.2.0",
            "fileVersion": "4.700.20.31603"
          },
          "System.Xml.XPath.XDocument.dll": {
            "assemblyVersion": "4.1.2.0",
            "fileVersion": "4.700.20.31603"
          },
          "System.Xml.XPath.dll": {
            "assemblyVersion": "4.1.2.0",
            "fileVersion": "4.700.20.31603"
          },
          "System.Xml.XmlDocument.dll": {
            "assemblyVersion": "4.1.2.0",
            "fileVersion": "4.700.20.31603"
          },
          "System.Xml.XmlSerializer.dll": {
            "assemblyVersion": "4.1.2.0",
            "fileVersion": "4.700.20.31603"
          },
          "System.Xml.dll": {
            "assemblyVersion": "4.0.0.0",
            "fileVersion": "4.700.20.31603"
          },
          "System.dll": {
            "assemblyVersion": "4.0.0.0",
            "fileVersion": "4.700.20.31603"
          },
          "WindowsBase.dll": {
            "assemblyVersion": "4.0.0.0",
            "fileVersion": "4.700.20.31603"
          },
          "mscorlib.dll": {
            "assemblyVersion": "4.0.0.0",
            "fileVersion": "4.700.20.31603"
          },
          "netstandard.dll": {
            "assemblyVersion": "2.1.0.0",
            "fileVersion": "4.700.20.31603"
          }
        },
        "native": {
          "SOS_README.md": {
            "fileVersion": "0.0.0.0"
          },
          "System.Globalization.Native.dylib": {
            "fileVersion": "0.0.0.0"
          },
          "System.IO.Compression.Native.a": {
            "fileVersion": "0.0.0.0"
          },
          "System.IO.Compression.Native.dylib": {
            "fileVersion": "0.0.0.0"
          },
          "System.Native.a": {
            "fileVersion": "0.0.0.0"
          },
          "System.Native.dylib": {
            "fileVersion": "0.0.0.0"
          },
          "System.Net.Http.Native.a": {
            "fileVersion": "0.0.0.0"
          },
          "System.Net.Http.Native.dylib": {
            "fileVersion": "0.0.0.0"
          },
          "System.Net.Security.Native.a": {
            "fileVersion": "0.0.0.0"
          },
          "System.Net.Security.Native.dylib": {
            "fileVersion": "0.0.0.0"
          },
          "System.Private.CoreLib.dll": {
            "assemblyVersion": "4.0.0.0",
            "fileVersion": "4.700.20.26901"
          },
          "System.Security.Cryptography.Native.Apple.a": {
            "fileVersion": "0.0.0.0"
          },
          "System.Security.Cryptography.Native.Apple.dylib": {
            "fileVersion": "0.0.0.0"
          },
          "System.Security.Cryptography.Native.OpenSsl.a": {
            "fileVersion": "0.0.0.0"
          },
          "System.Security.Cryptography.Native.OpenSsl.dylib": {
            "fileVersion": "0.0.0.0"
          },
          "libclrjit.dylib": {
            "fileVersion": "0.0.0.0"
          },
          "libcoreclr.dylib": {
            "fileVersion": "0.0.0.0"
          },
          "libdbgshim.dylib": {
            "fileVersion": "0.0.0.0"
          },
          "libhostfxr.dylib": {
            "fileVersion": "0.0.0.0"
          },
          "libhostpolicy.dylib": {
            "fileVersion": "0.0.0.0"
          },
          "libmscordaccore.dylib": {
            "fileVersion": "0.0.0.0"
          },
          "libmscordbi.dylib": {
            "fileVersion": "0.0.0.0"
          }
        }
      },
      "runtimepack.Microsoft.AspNetCore.App.Runtime.osx-x64/3.1.6": {
        "runtime": {
          "Microsoft.AspNetCore.Antiforgery.dll": {
            "assemblyVersion": "3.1.6.0",
            "fileVersion": "3.100.620.31714"
          },
          "Microsoft.AspNetCore.Authentication.Abstractions.dll": {
            "assemblyVersion": "3.1.6.0",
            "fileVersion": "3.100.620.31714"
          },
          "Microsoft.AspNetCore.Authentication.Cookies.dll": {
            "assemblyVersion": "3.1.6.0",
            "fileVersion": "3.100.620.31714"
          },
          "Microsoft.AspNetCore.Authentication.Core.dll": {
            "assemblyVersion": "3.1.6.0",
            "fileVersion": "3.100.620.31714"
          },
          "Microsoft.AspNetCore.Authentication.OAuth.dll": {
            "assemblyVersion": "3.1.6.0",
            "fileVersion": "3.100.620.31714"
          },
          "Microsoft.AspNetCore.Authentication.dll": {
            "assemblyVersion": "3.1.6.0",
            "fileVersion": "3.100.620.31714"
          },
          "Microsoft.AspNetCore.Authorization.Policy.dll": {
            "assemblyVersion": "3.1.6.0",
            "fileVersion": "3.100.620.31714"
          },
          "Microsoft.AspNetCore.Authorization.dll": {
            "assemblyVersion": "3.1.6.0",
            "fileVersion": "3.100.620.31714"
          },
          "Microsoft.AspNetCore.Components.Authorization.dll": {
            "assemblyVersion": "3.1.6.0",
            "fileVersion": "3.100.620.31714"
          },
          "Microsoft.AspNetCore.Components.Forms.dll": {
            "assemblyVersion": "3.1.6.0",
            "fileVersion": "3.100.620.31714"
          },
          "Microsoft.AspNetCore.Components.Server.dll": {
            "assemblyVersion": "3.1.6.0",
            "fileVersion": "3.100.620.31714"
          },
          "Microsoft.AspNetCore.Components.Web.dll": {
            "assemblyVersion": "3.1.6.0",
            "fileVersion": "3.100.620.31714"
          },
          "Microsoft.AspNetCore.Components.dll": {
            "assemblyVersion": "3.1.6.0",
            "fileVersion": "3.100.620.31714"
          },
          "Microsoft.AspNetCore.Connections.Abstractions.dll": {
            "assemblyVersion": "3.1.6.0",
            "fileVersion": "3.100.620.31714"
          },
          "Microsoft.AspNetCore.CookiePolicy.dll": {
            "assemblyVersion": "3.1.6.0",
            "fileVersion": "3.100.620.31714"
          },
          "Microsoft.AspNetCore.Cors.dll": {
            "assemblyVersion": "3.1.6.0",
            "fileVersion": "3.100.620.31714"
          },
          "Microsoft.AspNetCore.Cryptography.Internal.dll": {
            "assemblyVersion": "3.1.6.0",
            "fileVersion": "3.100.620.31714"
          },
          "Microsoft.AspNetCore.Cryptography.KeyDerivation.dll": {
            "assemblyVersion": "3.1.6.0",
            "fileVersion": "3.100.620.31714"
          },
          "Microsoft.AspNetCore.DataProtection.Abstractions.dll": {
            "assemblyVersion": "3.1.6.0",
            "fileVersion": "3.100.620.31714"
          },
          "Microsoft.AspNetCore.DataProtection.Extensions.dll": {
            "assemblyVersion": "3.1.6.0",
            "fileVersion": "3.100.620.31714"
          },
          "Microsoft.AspNetCore.DataProtection.dll": {
            "assemblyVersion": "3.1.6.0",
            "fileVersion": "3.100.620.31714"
          },
          "Microsoft.AspNetCore.Diagnostics.Abstractions.dll": {
            "assemblyVersion": "3.1.6.0",
            "fileVersion": "3.100.620.31714"
          },
          "Microsoft.AspNetCore.Diagnostics.HealthChecks.dll": {
            "assemblyVersion": "3.1.6.0",
            "fileVersion": "3.100.620.31714"
          },
          "Microsoft.AspNetCore.Diagnostics.dll": {
            "assemblyVersion": "3.1.6.0",
            "fileVersion": "3.100.620.31714"
          },
          "Microsoft.AspNetCore.HostFiltering.dll": {
            "assemblyVersion": "3.1.6.0",
            "fileVersion": "3.100.620.31714"
          },
          "Microsoft.AspNetCore.Hosting.Abstractions.dll": {
            "assemblyVersion": "3.1.6.0",
            "fileVersion": "3.100.620.31714"
          },
          "Microsoft.AspNetCore.Hosting.Server.Abstractions.dll": {
            "assemblyVersion": "3.1.6.0",
            "fileVersion": "3.100.620.31714"
          },
          "Microsoft.AspNetCore.Hosting.dll": {
            "assemblyVersion": "3.1.6.0",
            "fileVersion": "3.100.620.31714"
          },
          "Microsoft.AspNetCore.Html.Abstractions.dll": {
            "assemblyVersion": "3.1.6.0",
            "fileVersion": "3.100.620.31714"
          },
          "Microsoft.AspNetCore.Http.Abstractions.dll": {
            "assemblyVersion": "3.1.6.0",
            "fileVersion": "3.100.620.31714"
          },
          "Microsoft.AspNetCore.Http.Connections.Common.dll": {
            "assemblyVersion": "3.1.6.0",
            "fileVersion": "3.100.620.31714"
          },
          "Microsoft.AspNetCore.Http.Connections.dll": {
            "assemblyVersion": "3.1.6.0",
            "fileVersion": "3.100.620.31714"
          },
          "Microsoft.AspNetCore.Http.Extensions.dll": {
            "assemblyVersion": "3.1.6.0",
            "fileVersion": "3.100.620.31714"
          },
          "Microsoft.AspNetCore.Http.Features.dll": {
            "assemblyVersion": "3.1.6.0",
            "fileVersion": "3.100.620.31714"
          },
          "Microsoft.AspNetCore.Http.dll": {
            "assemblyVersion": "3.1.6.0",
            "fileVersion": "3.100.620.31714"
          },
          "Microsoft.AspNetCore.HttpOverrides.dll": {
            "assemblyVersion": "3.1.6.0",
            "fileVersion": "3.100.620.31714"
          },
          "Microsoft.AspNetCore.HttpsPolicy.dll": {
            "assemblyVersion": "3.1.6.0",
            "fileVersion": "3.100.620.31714"
          },
          "Microsoft.AspNetCore.Identity.dll": {
            "assemblyVersion": "3.1.6.0",
            "fileVersion": "3.100.620.31714"
          },
          "Microsoft.AspNetCore.Localization.Routing.dll": {
            "assemblyVersion": "3.1.6.0",
            "fileVersion": "3.100.620.31714"
          },
          "Microsoft.AspNetCore.Localization.dll": {
            "assemblyVersion": "3.1.6.0",
            "fileVersion": "3.100.620.31714"
          },
          "Microsoft.AspNetCore.Metadata.dll": {
            "assemblyVersion": "3.1.6.0",
            "fileVersion": "3.100.620.31714"
          },
          "Microsoft.AspNetCore.Mvc.Abstractions.dll": {
            "assemblyVersion": "3.1.6.0",
            "fileVersion": "3.100.620.31714"
          },
          "Microsoft.AspNetCore.Mvc.ApiExplorer.dll": {
            "assemblyVersion": "3.1.6.0",
            "fileVersion": "3.100.620.31714"
          },
          "Microsoft.AspNetCore.Mvc.Core.dll": {
            "assemblyVersion": "3.1.6.0",
            "fileVersion": "3.100.620.31714"
          },
          "Microsoft.AspNetCore.Mvc.Cors.dll": {
            "assemblyVersion": "3.1.6.0",
            "fileVersion": "3.100.620.31714"
          },
          "Microsoft.AspNetCore.Mvc.DataAnnotations.dll": {
            "assemblyVersion": "3.1.6.0",
            "fileVersion": "3.100.620.31714"
          },
          "Microsoft.AspNetCore.Mvc.Formatters.Json.dll": {
            "assemblyVersion": "3.1.6.0",
            "fileVersion": "3.100.620.31714"
          },
          "Microsoft.AspNetCore.Mvc.Formatters.Xml.dll": {
            "assemblyVersion": "3.1.6.0",
            "fileVersion": "3.100.620.31714"
          },
          "Microsoft.AspNetCore.Mvc.Localization.dll": {
            "assemblyVersion": "3.1.6.0",
            "fileVersion": "3.100.620.31714"
          },
          "Microsoft.AspNetCore.Mvc.Razor.dll": {
            "assemblyVersion": "3.1.6.0",
            "fileVersion": "3.100.620.31714"
          },
          "Microsoft.AspNetCore.Mvc.RazorPages.dll": {
            "assemblyVersion": "3.1.6.0",
            "fileVersion": "3.100.620.31714"
          },
          "Microsoft.AspNetCore.Mvc.TagHelpers.dll": {
            "assemblyVersion": "3.1.6.0",
            "fileVersion": "3.100.620.31714"
          },
          "Microsoft.AspNetCore.Mvc.ViewFeatures.dll": {
            "assemblyVersion": "3.1.6.0",
            "fileVersion": "3.100.620.31714"
          },
          "Microsoft.AspNetCore.Mvc.dll": {
            "assemblyVersion": "3.1.6.0",
            "fileVersion": "3.100.620.31714"
          },
          "Microsoft.AspNetCore.Razor.Runtime.dll": {
            "assemblyVersion": "3.1.6.0",
            "fileVersion": "3.100.620.31714"
          },
          "Microsoft.AspNetCore.Razor.dll": {
            "assemblyVersion": "3.1.6.0",
            "fileVersion": "3.100.620.31714"
          },
          "Microsoft.AspNetCore.ResponseCaching.Abstractions.dll": {
            "assemblyVersion": "3.1.6.0",
            "fileVersion": "3.100.620.31714"
          },
          "Microsoft.AspNetCore.ResponseCaching.dll": {
            "assemblyVersion": "3.1.6.0",
            "fileVersion": "3.100.620.31714"
          },
          "Microsoft.AspNetCore.ResponseCompression.dll": {
            "assemblyVersion": "3.1.6.0",
            "fileVersion": "3.100.620.31714"
          },
          "Microsoft.AspNetCore.Rewrite.dll": {
            "assemblyVersion": "3.1.6.0",
            "fileVersion": "3.100.620.31714"
          },
          "Microsoft.AspNetCore.Routing.Abstractions.dll": {
            "assemblyVersion": "3.1.6.0",
            "fileVersion": "3.100.620.31714"
          },
          "Microsoft.AspNetCore.Routing.dll": {
            "assemblyVersion": "3.1.6.0",
            "fileVersion": "3.100.620.31714"
          },
          "Microsoft.AspNetCore.Server.HttpSys.dll": {
            "assemblyVersion": "3.1.6.0",
            "fileVersion": "3.100.620.31714"
          },
          "Microsoft.AspNetCore.Server.IIS.dll": {
            "assemblyVersion": "3.1.6.0",
            "fileVersion": "3.100.620.31714"
          },
          "Microsoft.AspNetCore.Server.IISIntegration.dll": {
            "assemblyVersion": "3.1.6.0",
            "fileVersion": "3.100.620.31714"
          },
          "Microsoft.AspNetCore.Server.Kestrel.Core.dll": {
            "assemblyVersion": "3.1.6.0",
            "fileVersion": "3.100.620.31714"
          },
          "Microsoft.AspNetCore.Server.Kestrel.Transport.Sockets.dll": {
            "assemblyVersion": "3.1.6.0",
            "fileVersion": "3.100.620.31714"
          },
          "Microsoft.AspNetCore.Server.Kestrel.dll": {
            "assemblyVersion": "3.1.6.0",
            "fileVersion": "3.100.620.31714"
          },
          "Microsoft.AspNetCore.Session.dll": {
            "assemblyVersion": "3.1.6.0",
            "fileVersion": "3.100.620.31714"
          },
          "Microsoft.AspNetCore.SignalR.Common.dll": {
            "assemblyVersion": "3.1.6.0",
            "fileVersion": "3.100.620.31714"
          },
          "Microsoft.AspNetCore.SignalR.Core.dll": {
            "assemblyVersion": "3.1.6.0",
            "fileVersion": "3.100.620.31714"
          },
          "Microsoft.AspNetCore.SignalR.Protocols.Json.dll": {
            "assemblyVersion": "3.1.6.0",
            "fileVersion": "3.100.620.31714"
          },
          "Microsoft.AspNetCore.SignalR.dll": {
            "assemblyVersion": "3.1.6.0",
            "fileVersion": "3.100.620.31714"
          },
          "Microsoft.AspNetCore.StaticFiles.dll": {
            "assemblyVersion": "3.1.6.0",
            "fileVersion": "3.100.620.31714"
          },
          "Microsoft.AspNetCore.WebSockets.dll": {
            "assemblyVersion": "3.1.6.0",
            "fileVersion": "3.100.620.31714"
          },
          "Microsoft.AspNetCore.WebUtilities.dll": {
            "assemblyVersion": "3.1.6.0",
            "fileVersion": "3.100.620.31714"
          },
          "Microsoft.AspNetCore.dll": {
            "assemblyVersion": "3.1.6.0",
            "fileVersion": "3.100.620.31714"
          },
          "Microsoft.Extensions.Caching.Abstractions.dll": {
            "assemblyVersion": "3.1.6.0",
            "fileVersion": "3.100.620.31605"
          },
          "Microsoft.Extensions.Caching.Memory.dll": {
            "assemblyVersion": "3.1.6.0",
            "fileVersion": "3.100.620.31605"
          },
          "Microsoft.Extensions.Configuration.Abstractions.dll": {
            "assemblyVersion": "3.1.6.0",
            "fileVersion": "3.100.620.31605"
          },
          "Microsoft.Extensions.Configuration.Binder.dll": {
            "assemblyVersion": "3.1.6.0",
            "fileVersion": "3.100.620.31605"
          },
          "Microsoft.Extensions.Configuration.CommandLine.dll": {
            "assemblyVersion": "3.1.6.0",
            "fileVersion": "3.100.620.31605"
          },
          "Microsoft.Extensions.Configuration.EnvironmentVariables.dll": {
            "assemblyVersion": "3.1.6.0",
            "fileVersion": "3.100.620.31605"
          },
          "Microsoft.Extensions.Configuration.FileExtensions.dll": {
            "assemblyVersion": "3.1.6.0",
            "fileVersion": "3.100.620.31605"
          },
          "Microsoft.Extensions.Configuration.Ini.dll": {
            "assemblyVersion": "3.1.6.0",
            "fileVersion": "3.100.620.31605"
          },
          "Microsoft.Extensions.Configuration.Json.dll": {
            "assemblyVersion": "3.1.6.0",
            "fileVersion": "3.100.620.31605"
          },
          "Microsoft.Extensions.Configuration.KeyPerFile.dll": {
            "assemblyVersion": "3.1.6.0",
            "fileVersion": "3.100.620.31605"
          },
          "Microsoft.Extensions.Configuration.UserSecrets.dll": {
            "assemblyVersion": "3.1.6.0",
            "fileVersion": "3.100.620.31605"
          },
          "Microsoft.Extensions.Configuration.Xml.dll": {
            "assemblyVersion": "3.1.6.0",
            "fileVersion": "3.100.620.31605"
          },
          "Microsoft.Extensions.Configuration.dll": {
            "assemblyVersion": "3.1.6.0",
            "fileVersion": "3.100.620.31605"
          },
          "Microsoft.Extensions.DependencyInjection.Abstractions.dll": {
            "assemblyVersion": "3.1.6.0",
            "fileVersion": "3.100.620.31605"
          },
          "Microsoft.Extensions.DependencyInjection.dll": {
            "assemblyVersion": "3.1.6.0",
            "fileVersion": "3.100.620.31605"
          },
          "Microsoft.Extensions.Diagnostics.HealthChecks.Abstractions.dll": {
            "assemblyVersion": "3.1.6.0",
            "fileVersion": "3.100.620.31605"
          },
          "Microsoft.Extensions.Diagnostics.HealthChecks.dll": {
            "assemblyVersion": "3.1.6.0",
            "fileVersion": "3.100.620.31605"
          },
          "Microsoft.Extensions.FileProviders.Abstractions.dll": {
            "assemblyVersion": "3.1.6.0",
            "fileVersion": "3.100.620.31605"
          },
          "Microsoft.Extensions.FileProviders.Composite.dll": {
            "assemblyVersion": "3.1.6.0",
            "fileVersion": "3.100.620.31605"
          },
          "Microsoft.Extensions.FileProviders.Embedded.dll": {
            "assemblyVersion": "3.1.6.0",
            "fileVersion": "3.100.620.31605"
          },
          "Microsoft.Extensions.FileProviders.Physical.dll": {
            "assemblyVersion": "3.1.6.0",
            "fileVersion": "3.100.620.31605"
          },
          "Microsoft.Extensions.FileSystemGlobbing.dll": {
            "assemblyVersion": "3.1.6.0",
            "fileVersion": "3.100.620.31605"
          },
          "Microsoft.Extensions.Hosting.Abstractions.dll": {
            "assemblyVersion": "3.1.6.0",
            "fileVersion": "3.100.620.31605"
          },
          "Microsoft.Extensions.Hosting.dll": {
            "assemblyVersion": "3.1.6.0",
            "fileVersion": "3.100.620.31605"
          },
          "Microsoft.Extensions.Http.dll": {
            "assemblyVersion": "3.1.6.0",
            "fileVersion": "3.100.620.31605"
          },
          "Microsoft.Extensions.Identity.Core.dll": {
            "assemblyVersion": "3.1.6.0",
            "fileVersion": "3.100.620.31714"
          },
          "Microsoft.Extensions.Identity.Stores.dll": {
            "assemblyVersion": "3.1.6.0",
            "fileVersion": "3.100.620.31714"
          },
          "Microsoft.Extensions.Localization.Abstractions.dll": {
            "assemblyVersion": "3.1.6.0",
            "fileVersion": "3.100.620.31605"
          },
          "Microsoft.Extensions.Localization.dll": {
            "assemblyVersion": "3.1.6.0",
            "fileVersion": "3.100.620.31605"
          },
          "Microsoft.Extensions.Logging.Abstractions.dll": {
            "assemblyVersion": "3.1.6.0",
            "fileVersion": "3.100.620.31605"
          },
          "Microsoft.Extensions.Logging.Configuration.dll": {
            "assemblyVersion": "3.1.6.0",
            "fileVersion": "3.100.620.31605"
          },
          "Microsoft.Extensions.Logging.Console.dll": {
            "assemblyVersion": "3.1.6.0",
            "fileVersion": "3.100.620.31605"
          },
          "Microsoft.Extensions.Logging.Debug.dll": {
            "assemblyVersion": "3.1.6.0",
            "fileVersion": "3.100.620.31605"
          },
          "Microsoft.Extensions.Logging.EventLog.dll": {
            "assemblyVersion": "3.1.6.0",
            "fileVersion": "3.100.620.31605"
          },
          "Microsoft.Extensions.Logging.EventSource.dll": {
            "assemblyVersion": "3.1.6.0",
            "fileVersion": "3.100.620.31605"
          },
          "Microsoft.Extensions.Logging.TraceSource.dll": {
            "assemblyVersion": "3.1.6.0",
            "fileVersion": "3.100.620.31605"
          },
          "Microsoft.Extensions.Logging.dll": {
            "assemblyVersion": "3.1.6.0",
            "fileVersion": "3.100.620.31605"
          },
          "Microsoft.Extensions.ObjectPool.dll": {
            "assemblyVersion": "3.1.6.0",
            "fileVersion": "3.100.620.31605"
          },
          "Microsoft.Extensions.Options.ConfigurationExtensions.dll": {
            "assemblyVersion": "3.1.6.0",
            "fileVersion": "3.100.620.31605"
          },
          "Microsoft.Extensions.Options.DataAnnotations.dll": {
            "assemblyVersion": "3.1.6.0",
            "fileVersion": "3.100.620.31605"
          },
          "Microsoft.Extensions.Options.dll": {
            "assemblyVersion": "3.1.6.0",
            "fileVersion": "3.100.620.31605"
          },
          "Microsoft.Extensions.Primitives.dll": {
            "assemblyVersion": "3.1.6.0",
            "fileVersion": "3.100.620.31605"
          },
          "Microsoft.Extensions.WebEncoders.dll": {
            "assemblyVersion": "3.1.6.0",
            "fileVersion": "3.100.620.31605"
          },
          "Microsoft.JSInterop.dll": {
            "assemblyVersion": "3.1.6.0",
            "fileVersion": "3.100.620.31605"
          },
          "Microsoft.Net.Http.Headers.dll": {
            "assemblyVersion": "3.1.6.0",
            "fileVersion": "3.100.620.31714"
          },
          "Microsoft.Win32.SystemEvents.dll": {
            "assemblyVersion": "4.0.2.0",
            "fileVersion": "4.700.19.56404"
          },
          "System.Diagnostics.EventLog.dll": {
            "assemblyVersion": "4.0.2.0",
            "fileVersion": "4.700.19.56404"
          },
          "System.Drawing.Common.dll": {
            "assemblyVersion": "4.0.2.0",
            "fileVersion": "4.700.19.56404"
          },
          "System.IO.Pipelines.dll": {
            "assemblyVersion": "4.0.2.1",
            "fileVersion": "4.700.20.12001"
          },
          "System.Security.Cryptography.Pkcs.dll": {
            "assemblyVersion": "4.1.1.0",
            "fileVersion": "4.700.19.56404"
          },
          "System.Security.Cryptography.Xml.dll": {
            "assemblyVersion": "4.0.3.0",
            "fileVersion": "4.700.19.56404"
          },
          "System.Security.Permissions.dll": {
            "assemblyVersion": "4.0.3.0",
            "fileVersion": "4.700.19.56404"
          },
          "System.Windows.Extensions.dll": {
            "assemblyVersion": "4.0.1.0",
            "fileVersion": "4.700.19.56404"
          }
        }
      },
      "CsvHelper/15.0.1": {
        "dependencies": {
          "Microsoft.CSharp": "4.5.0"
        },
        "runtime": {
          "lib/netstandard2.1/CsvHelper.dll": {
            "assemblyVersion": "15.0.0.0",
            "fileVersion": "15.0.1.0"
          }
        }
      },
      "Microsoft.CSharp/4.5.0": {},
      "Microsoft.Extensions.Configuration/3.0.0": {
        "dependencies": {
          "Microsoft.Extensions.Configuration.Abstractions": "3.0.0"
        }
      },
      "Microsoft.Extensions.Configuration.Abstractions/3.0.0": {
        "dependencies": {
          "Microsoft.Extensions.Primitives": "3.0.0"
        }
      },
      "Microsoft.Extensions.Configuration.Binder/3.0.0": {
        "dependencies": {
          "Microsoft.Extensions.Configuration": "3.0.0"
        }
      },
      "Microsoft.Extensions.DependencyInjection/3.0.0": {
        "dependencies": {
          "Microsoft.Extensions.DependencyInjection.Abstractions": "3.0.0"
        }
      },
      "Microsoft.Extensions.DependencyInjection.Abstractions/3.0.0": {},
      "Microsoft.Extensions.Logging/3.0.0": {
        "dependencies": {
          "Microsoft.Extensions.Configuration.Binder": "3.0.0",
          "Microsoft.Extensions.DependencyInjection": "3.0.0",
          "Microsoft.Extensions.Logging.Abstractions": "3.0.0",
          "Microsoft.Extensions.Options": "3.0.0"
        }
      },
      "Microsoft.Extensions.Logging.Abstractions/3.0.0": {},
      "Microsoft.Extensions.Options/3.0.0": {
        "dependencies": {
          "Microsoft.Extensions.DependencyInjection.Abstractions": "3.0.0",
          "Microsoft.Extensions.Primitives": "3.0.0"
        }
      },
      "Microsoft.Extensions.Primitives/3.0.0": {},
      "Microsoft.NETCore.Platforms/1.1.0": {},
      "Microsoft.NETCore.Targets/1.1.0": {},
      "NLog/4.6.8": {
        "runtime": {
          "lib/netstandard2.0/NLog.dll": {
            "assemblyVersion": "4.0.0.0",
            "fileVersion": "4.6.8.10751"
          }
        }
      },
      "NLog.Config/4.6.8": {
        "dependencies": {
          "NLog": "4.6.8",
          "NLog.Schema": "4.6.8"
        }
      },
      "NLog.Extensions.Logging/1.6.0": {
        "dependencies": {
          "Microsoft.Extensions.Logging": "3.0.0",
          "NLog": "4.6.8"
        },
        "runtime": {
          "lib/netcoreapp3.0/NLog.Extensions.Logging.dll": {
            "assemblyVersion": "1.0.0.0",
            "fileVersion": "1.6.0.1196"
          }
        }
      },
      "NLog.Schema/4.6.8": {},
      "NLog.Web.AspNetCore/4.9.0": {
        "dependencies": {
          "NLog.Extensions.Logging": "1.6.0"
        },
        "runtime": {
          "lib/netcoreapp3.0/NLog.Web.AspNetCore.dll": {
            "assemblyVersion": "4.0.0.0",
            "fileVersion": "4.9.0.1511"
          }
        }
      },
      "runtime.any.System.Collections/4.3.0": {
        "dependencies": {
          "System.Runtime": "4.3.0"
        }
      },
      "runtime.any.System.Globalization/4.3.0": {},
      "runtime.any.System.IO/4.3.0": {},
      "runtime.any.System.Reflection/4.3.0": {},
      "runtime.any.System.Reflection.Primitives/4.3.0": {},
      "runtime.any.System.Resources.ResourceManager/4.3.0": {},
      "runtime.any.System.Runtime/4.3.0": {
        "dependencies": {
          "System.Private.Uri": "4.3.0"
        }
      },
      "runtime.any.System.Text.Encoding/4.3.0": {},
      "runtime.any.System.Threading.Tasks/4.3.0": {},
      "runtime.native.System/4.3.0": {
        "dependencies": {
          "Microsoft.NETCore.Platforms": "1.1.0",
          "Microsoft.NETCore.Targets": "1.1.0"
        }
      },
      "runtime.unix.System.Private.Uri/4.3.0": {
        "dependencies": {
          "runtime.native.System": "4.3.0"
        }
      },
      "System.Collections/4.3.0": {
        "dependencies": {
          "Microsoft.NETCore.Platforms": "1.1.0",
          "Microsoft.NETCore.Targets": "1.1.0",
          "System.Runtime": "4.3.0",
          "runtime.any.System.Collections": "4.3.0"
        }
      },
      "System.Globalization/4.3.0": {
        "dependencies": {
          "Microsoft.NETCore.Platforms": "1.1.0",
          "Microsoft.NETCore.Targets": "1.1.0",
          "System.Runtime": "4.3.0",
          "runtime.any.System.Globalization": "4.3.0"
        }
      },
      "System.IO/4.3.0": {
        "dependencies": {
          "Microsoft.NETCore.Platforms": "1.1.0",
          "Microsoft.NETCore.Targets": "1.1.0",
          "System.Runtime": "4.3.0",
          "System.Text.Encoding": "4.3.0",
          "System.Threading.Tasks": "4.3.0",
          "runtime.any.System.IO": "4.3.0"
        }
      },
      "System.Private.Uri/4.3.0": {
        "dependencies": {
          "Microsoft.NETCore.Platforms": "1.1.0",
          "Microsoft.NETCore.Targets": "1.1.0",
          "runtime.unix.System.Private.Uri": "4.3.0"
        }
      },
      "System.Reflection/4.3.0": {
        "dependencies": {
          "Microsoft.NETCore.Platforms": "1.1.0",
          "Microsoft.NETCore.Targets": "1.1.0",
          "System.IO": "4.3.0",
          "System.Reflection.Primitives": "4.3.0",
          "System.Runtime": "4.3.0",
          "runtime.any.System.Reflection": "4.3.0"
        }
      },
      "System.Reflection.Primitives/4.3.0": {
        "dependencies": {
          "Microsoft.NETCore.Platforms": "1.1.0",
          "Microsoft.NETCore.Targets": "1.1.0",
          "System.Runtime": "4.3.0",
          "runtime.any.System.Reflection.Primitives": "4.3.0"
        }
      },
      "System.Resources.ResourceManager/4.3.0": {
        "dependencies": {
          "Microsoft.NETCore.Platforms": "1.1.0",
          "Microsoft.NETCore.Targets": "1.1.0",
          "System.Globalization": "4.3.0",
          "System.Reflection": "4.3.0",
          "System.Runtime": "4.3.0",
          "runtime.any.System.Resources.ResourceManager": "4.3.0"
        }
      },
      "System.Runtime/4.3.0": {
        "dependencies": {
          "Microsoft.NETCore.Platforms": "1.1.0",
          "Microsoft.NETCore.Targets": "1.1.0",
          "runtime.any.System.Runtime": "4.3.0"
        }
      },
      "System.Runtime.Serialization.Formatters/4.3.0": {
        "dependencies": {
          "System.Collections": "4.3.0",
          "System.Reflection": "4.3.0",
          "System.Resources.ResourceManager": "4.3.0",
          "System.Runtime": "4.3.0",
          "System.Runtime.Serialization.Primitives": "4.3.0"
        }
      },
      "System.Runtime.Serialization.Primitives/4.3.0": {
        "dependencies": {
          "System.Resources.ResourceManager": "4.3.0",
          "System.Runtime": "4.3.0"
        }
      },
      "System.Text.Encoding/4.3.0": {
        "dependencies": {
          "Microsoft.NETCore.Platforms": "1.1.0",
          "Microsoft.NETCore.Targets": "1.1.0",
          "System.Runtime": "4.3.0",
          "runtime.any.System.Text.Encoding": "4.3.0"
        }
      },
      "System.Threading.Tasks/4.3.0": {
        "dependencies": {
          "Microsoft.NETCore.Platforms": "1.1.0",
          "Microsoft.NETCore.Targets": "1.1.0",
          "System.Runtime": "4.3.0",
          "runtime.any.System.Threading.Tasks": "4.3.0"
        }
      }
    }
  },
  "libraries": {
    "LandClim/2.0": {
      "type": "project",
      "serviceable": false,
      "sha512": ""
    },
    "runtimepack.Microsoft.NETCore.App.Runtime.osx-x64/3.1.6": {
      "type": "runtimepack",
      "serviceable": false,
      "sha512": ""
    },
    "runtimepack.Microsoft.AspNetCore.App.Runtime.osx-x64/3.1.6": {
      "type": "runtimepack",
      "serviceable": false,
      "sha512": ""
    },
    "CsvHelper/15.0.1": {
      "type": "package",
      "serviceable": true,
      "sha512": "sha512-cp8HCY1PWddLy8tllAOv7T8We67fg/7B40JiBaTLM252FQDVA0XvrmfVeqHDJBGbnXwyakpnAd8F2ELDZb8ZxQ==",
      "path": "csvhelper/15.0.1",
      "hashPath": "csvhelper.15.0.1.nupkg.sha512"
    },
    "Microsoft.CSharp/4.5.0": {
      "type": "package",
      "serviceable": true,
      "sha512": "sha512-kaj6Wb4qoMuH3HySFJhxwQfe8R/sJsNJnANrvv8WdFPMoNbKY5htfNscv+LHCu5ipz+49m2e+WQXpLXr9XYemQ==",
      "path": "microsoft.csharp/4.5.0",
      "hashPath": "microsoft.csharp.4.5.0.nupkg.sha512"
    },
    "Microsoft.Extensions.Configuration/3.0.0": {
      "type": "package",
      "serviceable": true,
      "sha512": "sha512-KECbOpM0EySVbKTQDN9o0swdnZpwpdhuYngnnJGzXdcAc+JR1mv7iF4lOyK00KSH8OZjobO0TUeo3mn7J2rdrA==",
      "path": "microsoft.extensions.configuration/3.0.0",
      "hashPath": "microsoft.extensions.configuration.3.0.0.nupkg.sha512"
    },
    "Microsoft.Extensions.Configuration.Abstractions/3.0.0": {
      "type": "package",
      "serviceable": true,
      "sha512": "sha512-Lge/PbXC53jI1MF2J92X5EZOeKV8Q/rlB1aV3H9I/ZTDyQGOyBcL03IAvnviWpHKj43BDkNy6kU2KKoh8kAS0g==",
      "path": "microsoft.extensions.configuration.abstractions/3.0.0",
      "hashPath": "microsoft.extensions.configuration.abstractions.3.0.0.nupkg.sha512"
    },
    "Microsoft.Extensions.Configuration.Binder/3.0.0": {
      "type": "package",
      "serviceable": true,
      "sha512": "sha512-iw3UL25Cw9GBILJOs8srwcId2UCz5+BxTu//EN5dO2dOFNtHcNJgnUiqIlmcGi0orIco0pDuDXuIDvhkrY/sGQ==",
      "path": "microsoft.extensions.configuration.binder/3.0.0",
      "hashPath": "microsoft.extensions.configuration.binder.3.0.0.nupkg.sha512"
    },
    "Microsoft.Extensions.DependencyInjection/3.0.0": {
      "type": "package",
      "serviceable": true,
      "sha512": "sha512-yDsuNA/BT4j9qrcRs0NUNHQAJfywFWX18ZZ+shxXJL+/nIfz3vhuRTfnYgvFeQlNBlgmgdSjOcs4ajgoS6Q/Ng==",
      "path": "microsoft.extensions.dependencyinjection/3.0.0",
      "hashPath": "microsoft.extensions.dependencyinjection.3.0.0.nupkg.sha512"
    },
    "Microsoft.Extensions.DependencyInjection.Abstractions/3.0.0": {
      "type": "package",
      "serviceable": true,
      "sha512": "sha512-ofQRroDlzJ0xKOtzNuaVt6QKNImFkhkG0lIMpGl7PtXnIf5SuLWBeiQZAP8DNSxDBJJdcsPkiJiMYK2WA5H8dQ==",
      "path": "microsoft.extensions.dependencyinjection.abstractions/3.0.0",
      "hashPath": "microsoft.extensions.dependencyinjection.abstractions.3.0.0.nupkg.sha512"
    },
    "Microsoft.Extensions.Logging/3.0.0": {
      "type": "package",
      "serviceable": true,
      "sha512": "sha512-rxs1i2denq0Sv0XMvAeISK7AskV5x7aihvlIlepJKFfkbE6PgbeXfPOElD0kf3Wr2Roo57ASQa5xUL9LTHWChA==",
      "path": "microsoft.extensions.logging/3.0.0",
      "hashPath": "microsoft.extensions.logging.3.0.0.nupkg.sha512"
    },
    "Microsoft.Extensions.Logging.Abstractions/3.0.0": {
      "type": "package",
      "serviceable": true,
      "sha512": "sha512-+PsosTYZn+omucI0ff9eywo9QcPLwcbIWf7dz7ZLM1zGR8gVZXJ3wo6+tkuIedUNW5iWENlVJPEvrGjiVeoNNQ==",
      "path": "microsoft.extensions.logging.abstractions/3.0.0",
      "hashPath": "microsoft.extensions.logging.abstractions.3.0.0.nupkg.sha512"
    },
    "Microsoft.Extensions.Options/3.0.0": {
      "type": "package",
      "serviceable": true,
      "sha512": "sha512-aZuVhN/TC872Yb55nrb7an82sfSAdNYxIyzu3zbYHOnhwal5hdkBUxzuoYj1khI2sw0tWq6i82i624zEFmiJhg==",
      "path": "microsoft.extensions.options/3.0.0",
      "hashPath": "microsoft.extensions.options.3.0.0.nupkg.sha512"
    },
    "Microsoft.Extensions.Primitives/3.0.0": {
      "type": "package",
      "serviceable": true,
      "sha512": "sha512-6gwewTbmOh+ZVBicVkL1XRp79sx4O7BVY6Yy+7OYZdwn3pyOKe9lOam+3gXJ3TZMjhJZdV0Ub8hxHt2vkrmN5Q==",
      "path": "microsoft.extensions.primitives/3.0.0",
      "hashPath": "microsoft.extensions.primitives.3.0.0.nupkg.sha512"
    },
    "Microsoft.NETCore.Platforms/1.1.0": {
      "type": "package",
      "serviceable": true,
      "sha512": "sha512-kz0PEW2lhqygehI/d6XsPCQzD7ff7gUJaVGPVETX611eadGsA3A877GdSlU0LRVMCTH/+P3o2iDTak+S08V2+A==",
      "path": "microsoft.netcore.platforms/1.1.0",
      "hashPath": "microsoft.netcore.platforms.1.1.0.nupkg.sha512"
    },
    "Microsoft.NETCore.Targets/1.1.0": {
      "type": "package",
      "serviceable": true,
      "sha512": "sha512-aOZA3BWfz9RXjpzt0sRJJMjAscAUm3Hoa4UWAfceV9UTYxgwZ1lZt5nO2myFf+/jetYQo4uTP7zS8sJY67BBxg==",
      "path": "microsoft.netcore.targets/1.1.0",
      "hashPath": "microsoft.netcore.targets.1.1.0.nupkg.sha512"
    },
    "NLog/4.6.8": {
      "type": "package",
      "serviceable": true,
      "sha512": "sha512-LKB0uN5naOTxdNz++iapk6arNYv2asE8FPRBAmQZ1fe8y8C1Zm6sldh/w9TP/w5s7FGK8s0x6ny0og5ytFK1oQ==",
      "path": "nlog/4.6.8",
      "hashPath": "nlog.4.6.8.nupkg.sha512"
    },
    "NLog.Config/4.6.8": {
      "type": "package",
      "serviceable": true,
      "sha512": "sha512-VIoS4R5RN4ob0x/bG1aHBEccRbBLSXgBbOaEX+DusEa9xdfz8mfhzRsX+bNI/CU2KV1AKLTtT5b4fRwQF9Z/yA==",
      "path": "nlog.config/4.6.8",
      "hashPath": "nlog.config.4.6.8.nupkg.sha512"
    },
    "NLog.Extensions.Logging/1.6.0": {
      "type": "package",
      "serviceable": true,
      "sha512": "sha512-T4EoyIMeVG0hMRzbzAOALtTvzshsDkdlxcgpQ0h/MDNppe/VwG39/M4LwisR8ViLPJmakLO0y7ey/IrK46FMFA==",
      "path": "nlog.extensions.logging/1.6.0",
      "hashPath": "nlog.extensions.logging.1.6.0.nupkg.sha512"
    },
    "NLog.Schema/4.6.8": {
      "type": "package",
      "serviceable": true,
      "sha512": "sha512-bhWbRPZNx+FRSDdacUrvSMUekjg8j/QCeh76I3zG3HTsmqlRYG/sIisBnySQkAuZ1Ghj++wwdAk4PH0zQ856gA==",
      "path": "nlog.schema/4.6.8",
      "hashPath": "nlog.schema.4.6.8.nupkg.sha512"
    },
    "NLog.Web.AspNetCore/4.9.0": {
      "type": "package",
      "serviceable": true,
      "sha512": "sha512-lEA+6Xm/DbU+Z6qVbJP1fgP4MvE0amlwXlJj3MyarcassZ/yuIAQIJsiLoJ/NMDFu1Jfh139L8F4mQpB/r5q/g==",
      "path": "nlog.web.aspnetcore/4.9.0",
      "hashPath": "nlog.web.aspnetcore.4.9.0.nupkg.sha512"
    },
    "runtime.any.System.Collections/4.3.0": {
      "type": "package",
      "serviceable": true,
      "sha512": "sha512-23g6rqftKmovn2cLeGsuHUYm0FD7pdutb0uQMJpZ3qTvq+zHkgmt6J65VtRry4WDGYlmkMa4xDACtaQ94alNag==",
      "path": "runtime.any.system.collections/4.3.0",
      "hashPath": "runtime.any.system.collections.4.3.0.nupkg.sha512"
    },
    "runtime.any.System.Globalization/4.3.0": {
      "type": "package",
      "serviceable": true,
      "sha512": "sha512-sMDBnad4rp4t7GY442Jux0MCUuKL4otn5BK6Ni0ARTXTSpRNBzZ7hpMfKSvnVSED5kYJm96YOWsqV0JH0d2uuw==",
      "path": "runtime.any.system.globalization/4.3.0",
      "hashPath": "runtime.any.system.globalization.4.3.0.nupkg.sha512"
    },
    "runtime.any.System.IO/4.3.0": {
      "type": "package",
      "serviceable": true,
      "sha512": "sha512-SDZ5AD1DtyRoxYtEcqQ3HDlcrorMYXZeCt7ZhG9US9I5Vva+gpIWDGMkcwa5XiKL0ceQKRZIX2x0XEjLX7PDzQ==",
      "path": "runtime.any.system.io/4.3.0",
      "hashPath": "runtime.any.system.io.4.3.0.nupkg.sha512"
    },
    "runtime.any.System.Reflection/4.3.0": {
      "type": "package",
      "serviceable": true,
      "sha512": "sha512-hLC3A3rI8jipR5d9k7+f0MgRCW6texsAp0MWkN/ci18FMtQ9KH7E2vDn/DH2LkxsszlpJpOn9qy6Z6/69rH6eQ==",
      "path": "runtime.any.system.reflection/4.3.0",
      "hashPath": "runtime.any.system.reflection.4.3.0.nupkg.sha512"
    },
    "runtime.any.System.Reflection.Primitives/4.3.0": {
      "type": "package",
      "serviceable": true,
      "sha512": "sha512-Nrm1p3armp6TTf2xuvaa+jGTTmncALWFq22CpmwRvhDf6dE9ZmH40EbOswD4GnFLrMRS0Ki6Kx5aUPmKK/hZBg==",
      "path": "runtime.any.system.reflection.primitives/4.3.0",
      "hashPath": "runtime.any.system.reflection.primitives.4.3.0.nupkg.sha512"
    },
    "runtime.any.System.Resources.ResourceManager/4.3.0": {
      "type": "package",
      "serviceable": true,
      "sha512": "sha512-Lxb89SMvf8w9p9+keBLyL6H6x/TEmc6QVsIIA0T36IuyOY3kNvIdyGddA2qt35cRamzxF8K5p0Opq4G4HjNbhQ==",
      "path": "runtime.any.system.resources.resourcemanager/4.3.0",
      "hashPath": "runtime.any.system.resources.resourcemanager.4.3.0.nupkg.sha512"
    },
    "runtime.any.System.Runtime/4.3.0": {
      "type": "package",
      "serviceable": true,
      "sha512": "sha512-fRS7zJgaG9NkifaAxGGclDDoRn9HC7hXACl52Or06a/fxdzDajWb5wov3c6a+gVSlekRoexfjwQSK9sh5um5LQ==",
      "path": "runtime.any.system.runtime/4.3.0",
      "hashPath": "runtime.any.system.runtime.4.3.0.nupkg.sha512"
    },
    "runtime.any.System.Text.Encoding/4.3.0": {
      "type": "package",
      "serviceable": true,
      "sha512": "sha512-+ihI5VaXFCMVPJNstG4O4eo1CfbrByLxRrQQTqOTp1ttK0kUKDqOdBSTaCB2IBk/QtjDrs6+x4xuezyMXdm0HQ==",
      "path": "runtime.any.system.text.encoding/4.3.0",
      "hashPath": "runtime.any.system.text.encoding.4.3.0.nupkg.sha512"
    },
    "runtime.any.System.Threading.Tasks/4.3.0": {
      "type": "package",
      "serviceable": true,
      "sha512": "sha512-OhBAVBQG5kFj1S+hCEQ3TUHBAEtZ3fbEMgZMRNdN8A0Pj4x+5nTELEqL59DU0TjKVE6II3dqKw4Dklb3szT65w==",
      "path": "runtime.any.system.threading.tasks/4.3.0",
      "hashPath": "runtime.any.system.threading.tasks.4.3.0.nupkg.sha512"
    },
    "runtime.native.System/4.3.0": {
      "type": "package",
      "serviceable": true,
      "sha512": "sha512-c/qWt2LieNZIj1jGnVNsE2Kl23Ya2aSTBuXMD6V7k9KWr6l16Tqdwq+hJScEpWER9753NWC8h96PaVNY5Ld7Jw==",
      "path": "runtime.native.system/4.3.0",
      "hashPath": "runtime.native.system.4.3.0.nupkg.sha512"
    },
    "runtime.unix.System.Private.Uri/4.3.0": {
      "type": "package",
      "serviceable": true,
      "sha512": "sha512-ooWzobr5RAq34r9uan1r/WPXJYG1XWy9KanrxNvEnBzbFdQbMG7Y3bVi4QxR7xZMNLOxLLTAyXvnSkfj5boZSg==",
      "path": "runtime.unix.system.private.uri/4.3.0",
      "hashPath": "runtime.unix.system.private.uri.4.3.0.nupkg.sha512"
    },
    "System.Collections/4.3.0": {
      "type": "package",
      "serviceable": true,
      "sha512": "sha512-3Dcj85/TBdVpL5Zr+gEEBUuFe2icOnLalmEh9hfck1PTYbbyWuZgh4fmm2ysCLTrqLQw6t3TgTyJ+VLp+Qb+Lw==",
      "path": "system.collections/4.3.0",
      "hashPath": "system.collections.4.3.0.nupkg.sha512"
    },
    "System.Globalization/4.3.0": {
      "type": "package",
      "serviceable": true,
      "sha512": "sha512-kYdVd2f2PAdFGblzFswE4hkNANJBKRmsfa2X5LG2AcWE1c7/4t0pYae1L8vfZ5xvE2nK/R9JprtToA61OSHWIg==",
      "path": "system.globalization/4.3.0",
      "hashPath": "system.globalization.4.3.0.nupkg.sha512"
    },
    "System.IO/4.3.0": {
      "type": "package",
      "serviceable": true,
      "sha512": "sha512-3qjaHvxQPDpSOYICjUoTsmoq5u6QJAFRUITgeT/4gqkF1bajbSmb1kwSxEA8AHlofqgcKJcM8udgieRNhaJ5Cg==",
      "path": "system.io/4.3.0",
      "hashPath": "system.io.4.3.0.nupkg.sha512"
    },
    "System.Private.Uri/4.3.0": {
      "type": "package",
      "serviceable": true,
      "sha512": "sha512-I4SwANiUGho1esj4V4oSlPllXjzCZDE+5XXso2P03LW2vOda2Enzh8DWOxwN6hnrJyp314c7KuVu31QYhRzOGg==",
      "path": "system.private.uri/4.3.0",
      "hashPath": "system.private.uri.4.3.0.nupkg.sha512"
    },
    "System.Reflection/4.3.0": {
      "type": "package",
      "serviceable": true,
      "sha512": "sha512-KMiAFoW7MfJGa9nDFNcfu+FpEdiHpWgTcS2HdMpDvt9saK3y/G4GwprPyzqjFH9NTaGPQeWNHU+iDlDILj96aQ==",
      "path": "system.reflection/4.3.0",
      "hashPath": "system.reflection.4.3.0.nupkg.sha512"
    },
    "System.Reflection.Primitives/4.3.0": {
      "type": "package",
      "serviceable": true,
      "sha512": "sha512-5RXItQz5As4xN2/YUDxdpsEkMhvw3e6aNveFXUn4Hl/udNTCNhnKp8lT9fnc3MhvGKh1baak5CovpuQUXHAlIA==",
      "path": "system.reflection.primitives/4.3.0",
      "hashPath": "system.reflection.primitives.4.3.0.nupkg.sha512"
    },
    "System.Resources.ResourceManager/4.3.0": {
      "type": "package",
      "serviceable": true,
      "sha512": "sha512-/zrcPkkWdZmI4F92gL/TPumP98AVDu/Wxr3CSJGQQ+XN6wbRZcyfSKVoPo17ilb3iOr0cCRqJInGwNMolqhS8A==",
      "path": "system.resources.resourcemanager/4.3.0",
      "hashPath": "system.resources.resourcemanager.4.3.0.nupkg.sha512"
    },
    "System.Runtime/4.3.0": {
      "type": "package",
      "serviceable": true,
      "sha512": "sha512-JufQi0vPQ0xGnAczR13AUFglDyVYt4Kqnz1AZaiKZ5+GICq0/1MH/mO/eAJHt/mHW1zjKBJd7kV26SrxddAhiw==",
      "path": "system.runtime/4.3.0",
      "hashPath": "system.runtime.4.3.0.nupkg.sha512"
    },
    "System.Runtime.Serialization.Formatters/4.3.0": {
      "type": "package",
      "serviceable": true,
      "sha512": "sha512-KT591AkTNFOTbhZlaeMVvfax3RqhH1EJlcwF50Wm7sfnBLuHiOeZRRKrr1ns3NESkM20KPZ5Ol/ueMq5vg4QoQ==",
      "path": "system.runtime.serialization.formatters/4.3.0",
      "hashPath": "system.runtime.serialization.formatters.4.3.0.nupkg.sha512"
    },
    "System.Runtime.Serialization.Primitives/4.3.0": {
      "type": "package",
      "serviceable": true,
      "sha512": "sha512-Wz+0KOukJGAlXjtKr+5Xpuxf8+c8739RI1C+A2BoQZT+wMCCoMDDdO8/4IRHfaVINqL78GO8dW8G2lW/e45Mcw==",
      "path": "system.runtime.serialization.primitives/4.3.0",
      "hashPath": "system.runtime.serialization.primitives.4.3.0.nupkg.sha512"
    },
    "System.Text.Encoding/4.3.0": {
      "type": "package",
      "serviceable": true,
      "sha512": "sha512-BiIg+KWaSDOITze6jGQynxg64naAPtqGHBwDrLaCtixsa5bKiR8dpPOHA7ge3C0JJQizJE+sfkz1wV+BAKAYZw==",
      "path": "system.text.encoding/4.3.0",
      "hashPath": "system.text.encoding.4.3.0.nupkg.sha512"
    },
    "System.Threading.Tasks/4.3.0": {
      "type": "package",
      "serviceable": true,
      "sha512": "sha512-LbSxKEdOUhVe8BezB/9uOGGppt+nZf6e1VFyw6v3DN6lqitm0OSn2uXMOdtP0M3W4iMcqcivm2J6UgqiwwnXiA==",
      "path": "system.threading.tasks/4.3.0",
      "hashPath": "system.threading.tasks.4.3.0.nupkg.sha512"
    }
  },
  "runtimes": {
    "osx-x64": [
      "osx",
      "unix-x64",
      "unix",
      "any",
      "base"
    ],
    "osx.10.10-x64": [
      "osx.10.10",
      "osx-x64",
      "osx",
      "unix-x64",
      "unix",
      "any",
      "base"
    ],
    "osx.10.11-x64": [
      "osx.10.11",
      "osx.10.10-x64",
      "osx.10.10",
      "osx-x64",
      "osx",
      "unix-x64",
      "unix",
      "any",
      "base"
    ],
    "osx.10.12-x64": [
      "osx.10.12",
      "osx.10.11-x64",
      "osx.10.11",
      "osx.10.10-x64",
      "osx.10.10",
      "osx-x64",
      "osx",
      "unix-x64",
      "unix",
      "any",
      "base"
    ],
    "osx.10.13-x64": [
      "osx.10.13",
      "osx.10.12-x64",
      "osx.10.12",
      "osx.10.11-x64",
      "osx.10.11",
      "osx.10.10-x64",
      "osx.10.10",
      "osx-x64",
      "osx",
      "unix-x64",
      "unix",
      "any",
      "base"
    ],
    "osx.10.14-x64": [
      "osx.10.14",
      "osx.10.13-x64",
      "osx.10.13",
      "osx.10.12-x64",
      "osx.10.12",
      "osx.10.11-x64",
      "osx.10.11",
      "osx.10.10-x64",
      "osx.10.10",
      "osx-x64",
      "osx",
      "unix-x64",
      "unix",
      "any",
      "base"
    ],
    "osx.10.15-x64": [
      "osx.10.15",
      "osx.10.14-x64",
      "osx.10.14",
      "osx.10.13-x64",
      "osx.10.13",
      "osx.10.12-x64",
      "osx.10.12",
      "osx.10.11-x64",
      "osx.10.11",
      "osx.10.10-x64",
      "osx.10.10",
      "osx-x64",
      "osx",
      "unix-x64",
      "unix",
      "any",
      "base"
    ]
  }
}